{
  "info": {
    "_postman_id": "0ac40b2b-29b5-43cf-96f5-9ebf43e04217",
    "name": "Root",
    "schema": "https://schema.getpostman.com/json/collection/v2.0.0/collection.json"
  },
  "item": [
    {
      "name": "Root",
      "event": [
        {
          "listen": "test",
          "script": {
            "id": "4bd54431-5d9a-462f-ad7f-b2bdeb05f9e6",
            "exec": [
              "pm.test('Should be a status code 200', () => {",
              "    pm.response.to.have.status(200);",
              "})",
              "",
              ""
            ],
            "type": "text/javascript"
          }
        }
      ],
      "id": "ce8f801b-76f3-48b6-8f21-485905494603",
      "protocolProfileBehavior": {
        "disableBodyPruning": true
      },
      "request": {
        "method": "GET",
        "header": [],
        "url": "{{url}}"
      },
      "response": []
    }
  ]
}