{
  "assignVariables": [
    {
      "openApiOperation": "POST::/auth/login",
      "collectionVariables": [
        {
          "responseBodyProp": "token",
          "name": "bearerToken"
        }
      ]
    },
    {
      "openApiOperation": "POST::/keywords/",
      "collectionVariables": [
        {
          "responseBodyProp": "id",
          "name": "keyword_id"
        }
      ]
    },
    {
      "openApiOperation": "POST::/books/",
      "collectionVariables": [
        {
          "responseBodyProp": "id",
          "name": "book_id"
        }
      ]
    },
    {
      "openApiOperation": "POST::/topics/",
      "collectionVariables": [
        {
          "responseBodyProp": "id",
          "name": "topic_id"
        }
      ]
    },
    {
      "openApiOperation": "POST::/orders/",
      "collectionVariables": [
        {
          "responseBodyProp": "id",
          "name": "order_id"
        }
      ]
    },
    {
      "openApiOperation": "POST::/orders/",
      "collectionVariables": [
        {
          "responseBodyProp": "id",
          "name": "order_id"
        }
      ]
    },
    {
      "openApiOperation": "GET::/customers/current",
      "collectionVariables": [
        {
          "responseBodyProp": "id",
          "name": "id_customer"
        }
      ]
    }
  ]
}